{
  "index":"/index",
  "proyect_name":"iot-evalve",
  "database":{
    "name":"iot-evalve",
    "ip":"127.0.0.1",
    "port":27017
  },
  "credentials": {
      "drodriguez":"mgT7i0IL3EZ2tAtK8meB",
      "AKIAJFHWBYS44AAMTTFA":"bFIry6+5cfSq3rfVyWkIFk7nL1Qsd2RW5uF9eoTb"
  },
  "cert":{
    "crt":"lib/certificate.pem",
    "key":"lib/key.pem"
  },"local_concentrator":1
}
